digraph {
graph [overlap=false, size=14];
root=
gitlab.com/chitataunga/microservice-in-go/hello-world-test-gin
;
node [ shape = plaintext, fontname = 
Helvetica, 
fontsize=24];
gitlab.com/chitataunga/microservice-in-go/hello-world-test-gin [style = filled, 
fillcolor = #E94762];
"github.com/gin-contrib/\nsse" -> "github.com/stretchr/\ntestify"
"github.com/gin-gonic/\ngin" -> "github.com/davecgh/\ngo-spew"
"github.com/gin-gonic/\ngin" -> "github.com/gin-contrib/\nsse"
"github.com/gin-gonic/\ngin" -> "github.com/go-playground/\nlocales"
"github.com/gin-gonic/\ngin" -> "github.com/go-playground/\nuniversal-translator"
"github.com/gin-gonic/\ngin" -> "github.com/go-playground/\nvalidator/v10"
"github.com/gin-gonic/\ngin" -> "github.com/goccy/\ngo-json"
"github.com/gin-gonic/\ngin" -> "github.com/json-iterator/\ngo"
"github.com/gin-gonic/\ngin" -> "github.com/leodido/\ngo-urn"
"github.com/gin-gonic/\ngin" -> "github.com/mattn/\ngo-isatty"
"github.com/gin-gonic/\ngin" -> "github.com/modern-go/\nconcurrent"
"github.com/gin-gonic/\ngin" -> "github.com/modern-go/\nreflect2"
"github.com/gin-gonic/\ngin" -> "github.com/pelletier/\ngo-toml/v2"
"github.com/gin-gonic/\ngin" -> "github.com/pmezard/\ngo-difflib"
"github.com/gin-gonic/\ngin" -> "github.com/stretchr/\ntestify"
"github.com/gin-gonic/\ngin" -> "github.com/ugorji/\ngo/codec"
"github.com/gin-gonic/\ngin" -> "golang.org/x/crypto"
"github.com/gin-gonic/\ngin" -> "golang.org/x/net"
"github.com/gin-gonic/\ngin" -> "golang.org/x/sys"
"github.com/gin-gonic/\ngin" -> "golang.org/x/text"
"github.com/gin-gonic/\ngin" -> "google.golang.org/protobuf"
"github.com/gin-gonic/\ngin" -> "gopkg.in/yaml.v2"
"github.com/gin-gonic/\ngin" -> "gopkg.in/yaml.v3"
"github.com/go-playground/\nlocales" -> "golang.org/x/text"
"github.com/go-playground/\nuniversal-translator" -> "github.com/go-playground/\nlocales"
"github.com/go-playground/\nvalidator/v10" -> "github.com/davecgh/\ngo-spew"
"github.com/go-playground/\nvalidator/v10" -> "github.com/go-playground/\nassert/v2"
"github.com/go-playground/\nvalidator/v10" -> "github.com/go-playground/\nlocales"
"github.com/go-playground/\nvalidator/v10" -> "github.com/go-playground/\nuniversal-translator"
"github.com/go-playground/\nvalidator/v10" -> "github.com/kr/\npretty"
"github.com/go-playground/\nvalidator/v10" -> "github.com/leodido/\ngo-urn"
"github.com/go-playground/\nvalidator/v10" -> "github.com/rogpeppe/\ngo-internal"
"github.com/go-playground/\nvalidator/v10" -> "github.com/stretchr/\ntestify"
"github.com/go-playground/\nvalidator/v10" -> "golang.org/x/crypto"
"github.com/go-playground/\nvalidator/v10" -> "golang.org/x/sys"
"github.com/go-playground/\nvalidator/v10" -> "golang.org/x/text"
"github.com/go-playground/\nvalidator/v10" -> "gopkg.in/check.v1"
"github.com/go-playground/\nvalidator/v10" -> "gopkg.in/yaml.v3"
"github.com/golang/\nprotobuf" -> "github.com/google/\ngo-cmp"
"github.com/golang/\nprotobuf" -> "google.golang.org/protobuf"
"github.com/google/\ngo-cmp" -> "golang.org/x/xerrors"
"github.com/json-iterator/\ngo" -> "github.com/davecgh/\ngo-spew"
"github.com/json-iterator/\ngo" -> "github.com/google/\ngofuzz"
"github.com/json-iterator/\ngo" -> "github.com/modern-go/\nconcurrent"
"github.com/json-iterator/\ngo" -> "github.com/modern-go/\nreflect2"
"github.com/json-iterator/\ngo" -> "github.com/stretchr/\ntestify"
"github.com/kr/\npretty" -> "github.com/kr/\ntext"
"github.com/kr/\npretty" -> "github.com/rogpeppe/\ngo-internal"
"github.com/kr/\ntext" -> "github.com/creack/\npty"
"github.com/kr/\ntext" -> "github.com/kr/\npty"
"github.com/leodido/\ngo-urn" -> "github.com/stretchr/\ntestify"
"github.com/mattn/\ngo-isatty" -> "golang.org/x/sys"
"github.com/pelletier/\ngo-toml/v2" -> "github.com/stretchr/\ntestify"
"github.com/rogpeppe/\ngo-internal" -> "github.com/pkg/\ndiff"
"github.com/rogpeppe/\ngo-internal" -> "gopkg.in/errgo.v2"
"github.com/stretchr/\ntestify" -> "github.com/davecgh/\ngo-spew"
"github.com/stretchr/\ntestify" -> "github.com/pmezard/\ngo-difflib"
"github.com/stretchr/\ntestify" -> "github.com/stretchr/\nobjx"
"github.com/stretchr/\ntestify" -> "gopkg.in/yaml.v3"
"github.com/ugorji/\ngo" -> "github.com/ugorji/\ngo/codec"
"github.com/ugorji/\ngo/codec" -> "github.com/ugorji/\ngo"
"gitlab.com/chitataunga/microservice-in-go/hello-world-test-gin" -> "github.com/gin-contrib/\nsse"
"gitlab.com/chitataunga/microservice-in-go/hello-world-test-gin" -> "github.com/gin-gonic/\ngin"
"gitlab.com/chitataunga/microservice-in-go/hello-world-test-gin" -> "github.com/go-playground/\nlocales"
"gitlab.com/chitataunga/microservice-in-go/hello-world-test-gin" -> "github.com/go-playground/\nuniversal-translator"
"gitlab.com/chitataunga/microservice-in-go/hello-world-test-gin" -> "github.com/go-playground/\nvalidator/v10"
"gitlab.com/chitataunga/microservice-in-go/hello-world-test-gin" -> "github.com/goccy/\ngo-json"
"gitlab.com/chitataunga/microservice-in-go/hello-world-test-gin" -> "github.com/json-iterator/\ngo"
"gitlab.com/chitataunga/microservice-in-go/hello-world-test-gin" -> "github.com/leodido/\ngo-urn"
"gitlab.com/chitataunga/microservice-in-go/hello-world-test-gin" -> "github.com/mattn/\ngo-isatty"
"gitlab.com/chitataunga/microservice-in-go/hello-world-test-gin" -> "github.com/modern-go/\nconcurrent"
"gitlab.com/chitataunga/microservice-in-go/hello-world-test-gin" -> "github.com/modern-go/\nreflect2"
"gitlab.com/chitataunga/microservice-in-go/hello-world-test-gin" -> "github.com/pelletier/\ngo-toml/v2"
"gitlab.com/chitataunga/microservice-in-go/hello-world-test-gin" -> "github.com/ugorji/\ngo/codec"
"gitlab.com/chitataunga/microservice-in-go/hello-world-test-gin" -> "golang.org/x/crypto"
"gitlab.com/chitataunga/microservice-in-go/hello-world-test-gin" -> "golang.org/x/net"
"gitlab.com/chitataunga/microservice-in-go/hello-world-test-gin" -> "golang.org/x/sys"
"gitlab.com/chitataunga/microservice-in-go/hello-world-test-gin" -> "golang.org/x/text"
"gitlab.com/chitataunga/microservice-in-go/hello-world-test-gin" -> "google.golang.org/protobuf"
"gitlab.com/chitataunga/microservice-in-go/hello-world-test-gin" -> "gopkg.in/yaml.v2"
"golang.org/x/crypto" -> "golang.org/x/net"
"golang.org/x/crypto" -> "golang.org/x/sys"
"golang.org/x/crypto" -> "golang.org/x/term"
"golang.org/x/crypto" -> "golang.org/x/text"
"golang.org/x/net" -> "golang.org/x/sys"
"golang.org/x/net" -> "golang.org/x/term"
"golang.org/x/net" -> "golang.org/x/text"
"golang.org/x/term" -> "golang.org/x/sys"
"golang.org/x/text" -> "golang.org/x/tools"
"google.golang.org/protobuf" -> "github.com/golang/\nprotobuf"
"google.golang.org/protobuf" -> "github.com/google/\ngo-cmp"
"gopkg.in/check.v1" -> "github.com/kr/\npretty"
"gopkg.in/errgo.v2" -> "github.com/kr/\npretty"
"gopkg.in/errgo.v2" -> "gopkg.in/check.v1"
"gopkg.in/yaml.v2" -> "gopkg.in/check.v1"
"gopkg.in/yaml.v3" -> "gopkg.in/check.v1"
}
